{
    "KPlugin": {
        "Icon": "",
        "Name": "Earth Science (USRA)",
        "Name[ca]": "Ciències de la Terra (USRA)",
        "Name[da]": "Earth Science (USRA)",
        "Name[de]": "Earth Science (USRA)",
        "Name[en_GB]": "Earth Science (USRA)",
        "Name[es]": "Ciencias de la Tierra (USRA)",
        "Name[et]": "Earth Science (USRA)",
        "Name[eu]": "Lurreko zientzia - Earth Science (USRA)",
        "Name[fi]": "Earth Science (USRA)",
        "Name[fr]": "Sciences de la terre (USRA)",
        "Name[gl]": "Ciencias da terra (USRA)",
        "Name[hu]": "Földtudomány (USRA)",
        "Name[id]": "Earth Science (USRA)",
        "Name[it]": "Scienza della Terra (USRA)",
        "Name[ko]": "지구과학(USRA)",
        "Name[lt]": "Mokslas apie Žemę (USRA)",
        "Name[nl]": "Aardwetenschappen (USRA)",
        "Name[nn]": "Geovitskap (USRA)",
        "Name[pt]": "Earth Science (USRA)",
        "Name[pt_BR]": "Earth Science (USRA)",
        "Name[ru]": "Изучение земли (USRA)",
        "Name[sk]": "Veda o zemi (USRA)",
        "Name[sl]": "Earth Science (USRA)",
        "Name[sv]": "Geovetenskap (USRA)",
        "Name[uk]": "Earth Science (USRA)",
        "Name[x-test]": "xxEarth Science (USRA)xx",
        "Name[zh_CN]": "地球科学 (USRA)",
        "Name[zh_TW]": "Earth Science (USRA)",
        "ServiceTypes": [
            "PlasmaPoTD/Plugin"
        ]
    },
    "X-KDE-PlasmaPoTDProvider-Identifier": "epod"
}
